…
`mutate()`
----------

Let's get:

-   GDP by multiplying GPD per capita with population, and
-   GDP in billions, named (`gdpBill`), rounded to two decimals.

``` r
gapminder %>% 
  mutate(gdp = gdpPercap * pop, 
         gdpBill = round(gdp/1e9, 2))
```

    ## # A tibble: 1,704 x 8
    ##    country    continent  year lifeExp     pop gdpPercap        gdp gdpBill
    ##    <fct>      <fct>     <int>   <dbl>   <int>     <dbl>      <dbl>   <dbl>
    ##  1 Afghanist… Asia       1952    28.8  8.43e6      779.    6.57e 9    6.57
    ##  2 Afghanist… Asia       1957    30.3  9.24e6      821.    7.59e 9    7.59
    ##  3 Afghanist… Asia       1962    32.0  1.03e7      853.    8.76e 9    8.76
    ##  4 Afghanist… Asia       1967    34.0  1.15e7      836.    9.65e 9    9.65
    ##  5 Afghanist… Asia       1972    36.1  1.31e7      740.    9.68e 9    9.68
    ##  6 Afghanist… Asia       1977    38.4  1.49e7      786.    1.17e10   11.7 
    ##  7 Afghanist… Asia       1982    39.9  1.29e7      978.    1.26e10   12.6 
    ##  8 Afghanist… Asia       1987    40.8  1.39e7      852.    1.18e10   11.8 
    ##  9 Afghanist… Asia       1992    41.7  1.63e7      649.    1.06e10   10.6 
    ## 10 Afghanist… Asia       1997    41.8  2.22e7      635.    1.41e10   14.1 
    ## # ... with 1,694 more rows

Notice the backwards compatibility! No need for loops!

Try the same thing, but with `transmute` (drops all other variables).

``` r
gapminder %>% 
  transmute(gdp = gdpPercap * pop, 
         gdpBill = round(gdp/1e9, 2))
```

    ## # A tibble: 1,704 x 2
    ##             gdp gdpBill
    ##           <dbl>   <dbl>
    ##  1  6567086330.    6.57
    ##  2  7585448670.    7.59
    ##  3  8758855797.    8.76
    ##  4  9648014150.    9.65
    ##  5  9678553274.    9.68
    ##  6 11697659231.   11.7 
    ##  7 12598563401.   12.6 
    ##  8 11820990309.   11.8 
    ##  9 10595901589.   10.6 
    ## 10 14121995875.   14.1 
    ## # ... with 1,694 more rows
…
Your turn: Make a new column called `cc` that pastes the country name followed by the continent, separated by a comma. (Hint: use the `paste` function with the `sep=", "` argument).

``` r
gapminder %>% 
  mutate(cc = paste(country, continent, sep = ', '))
```

    ## # A tibble: 1,704 x 7
    ##    country     continent  year lifeExp      pop gdpPercap cc               
    ##    <fct>       <fct>     <int>   <dbl>    <int>     <dbl> <chr>            
    ##  1 Afghanistan Asia       1952    28.8  8425333      779. Afghanistan, Asia
    ##  2 Afghanistan Asia       1957    30.3  9240934      821. Afghanistan, Asia
    ##  3 Afghanistan Asia       1962    32.0 10267083      853. Afghanistan, Asia
    ##  4 Afghanistan Asia       1967    34.0 11537966      836. Afghanistan, Asia
    ##  5 Afghanistan Asia       1972    36.1 13079460      740. Afghanistan, Asia
    ##  6 Afghanistan Asia       1977    38.4 14880372      786. Afghanistan, Asia
    ##  7 Afghanistan Asia       1982    39.9 12881816      978. Afghanistan, Asia
    ##  8 Afghanistan Asia       1987    40.8 13867957      852. Afghanistan, Asia
    ##  9 Afghanistan Asia       1992    41.7 16317921      649. Afghanistan, Asia
    ## 10 Afghanistan Asia       1997    41.8 22227415      635. Afghanistan, Asia
    ## # ... with 1,694 more rows
…
Do the same thing, but try:

1.  grouping by country
2.  grouping by continent and country

``` r
gapminder %>% 
  group_by(country) %>% 
  summarise(mu = mean(lifeExp), md = median(lifeExp))
```

    ## # A tibble: 142 x 3
    ##    country        mu    md
    ##    <fct>       <dbl> <dbl>
    ##  1 Afghanistan  37.5  39.1
    ##  2 Albania      68.4  69.7
    ##  3 Algeria      59.0  59.7
    ##  4 Angola       37.9  39.7
    ##  5 Argentina    69.1  69.2
    ##  6 Australia    74.7  74.1
    ##  7 Austria      73.1  72.7
    ##  8 Bahrain      65.6  67.3
    ##  9 Bangladesh   49.8  48.5
    ## 10 Belgium      73.6  73.4
    ## # ... with 132 more rows

``` r
gapminder %>% 
  group_by(continent, country) %>% 
  summarise(mu = mean(lifeExp), md = median(lifeExp))
```

    ## # A tibble: 142 x 4
    ## # Groups:   continent [?]
    ##    continent country                     mu    md
    ##    <fct>     <fct>                    <dbl> <dbl>
    ##  1 Africa    Algeria                   59.0  59.7
    ##  2 Africa    Angola                    37.9  39.7
    ##  3 Africa    Benin                     48.8  50.0
    ##  4 Africa    Botswana                  54.6  52.9
    ##  5 Africa    Burkina Faso              44.7  47.1
    ##  6 Africa    Burundi                   44.8  45.0
    ##  7 Africa    Cameroon                  48.1  49.6
    ##  8 Africa    Central African Republic  43.9  44.1
    ##  9 Africa    Chad                      46.8  48.4
    ## 10 Africa    Comoros                   52.4  51.9
    ## # ... with 132 more rows
…
For any generic output, we can use dplyr's `do()` function -- but that's a topic for STAT 547.

Grouped `mutate()`
------------------

Calculate the growth in population since the first year on record *for each country*. `first()` is useful.

``` r
gapminder %>% 
  group_by(country) %>% 
  mutate(growth = pop - first(pop))
```

    ## # A tibble: 1,704 x 7
    ## # Groups:   country [142]
    ##    country     continent  year lifeExp      pop gdpPercap   growth
    ##    <fct>       <fct>     <int>   <dbl>    <int>     <dbl>    <int>
    ##  1 Afghanistan Asia       1952    28.8  8425333      779.        0
    ##  2 Afghanistan Asia       1957    30.3  9240934      821.   815601
    ##  3 Afghanistan Asia       1962    32.0 10267083      853.  1841750
    ##  4 Afghanistan Asia       1967    34.0 11537966      836.  3112633
    ##  5 Afghanistan Asia       1972    36.1 13079460      740.  4654127
    ##  6 Afghanistan Asia       1977    38.4 14880372      786.  6455039
    ##  7 Afghanistan Asia       1982    39.9 12881816      978.  4456483
    ##  8 Afghanistan Asia       1987    40.8 13867957      852.  5442624
    ##  9 Afghanistan Asia       1992    41.7 16317921      649.  7892588
    ## 10 Afghanistan Asia       1997    41.8 22227415      635. 13802082
    ## # ... with 1,694 more rows
…
